^C:\PROJECTS\HOMEWORK_VS\HOMEWORK1_VS\X64\DEBUG\HELPERS.OBJ|C:\PROJECTS\HOMEWORK_VS\HOMEWORK1_VS\X64\DEBUG\HOMEWORK1_VS.OBJ
C:\PROJECTS\HOMEWORK_VS\HOMEWORK1_VS\X64\DEBUG\HOMEWORK1_VS.ILK
C:\PROJECTS\HOMEWORK_VS\HOMEWORK1_VS\X64\DEBUG\HOMEWORK1_VS.EXE
C:\PROJECTS\HOMEWORK_VS\HOMEWORK1_VS\X64\DEBUG\HOMEWORK1_VS.PDB
